^C:\USERS\FAUST\SOURCE\REPOS\SOUNDPROGRAMMINGPROJECT\SOUNDPROGRCLIENT\SOUNDCLIENT.CPP|C:\USERS\FAUST\SOURCE\REPOS\SOUNDPROGRAMMINGPROJECT\SOUNDPROGRCLIENT\SOUNDPROGRCLIENT.CPP
C:\USERS\FAUST\SOURCE\REPOS\SOUNDPROGRAMMINGPROJECT\SOUNDPROGRCLIENT\X64\DEBUG\VC143.PDB
C:\USERS\FAUST\SOURCE\REPOS\SOUNDPROGRAMMINGPROJECT\SOUNDPROGRCLIENT\X64\DEBUG\VC143.IDB
C:\USERS\FAUST\SOURCE\REPOS\SOUNDPROGRAMMINGPROJECT\SOUNDPROGRCLIENT\X64\DEBUG\SOUNDPROGRCLIENT.OBJ
C:\USERS\FAUST\SOURCE\REPOS\SOUNDPROGRAMMINGPROJECT\SOUNDPROGRCLIENT\X64\DEBUG\SOUNDCLIENT.OBJ
^C:\USERS\FAUST\SOURCE\REPOS\SOUNDPROGRAMMINGPROJECT\SOUNDPROGRCLIENT\SOUNDCLIENT.CPP
C:\USERS\FAUST\SOURCE\REPOS\SOUNDPROGRAMMINGPROJECT\SOUNDPROGRCLIENT\X64\DEBUG\VC143.PDB
^C:\USERS\FAUST\SOURCE\REPOS\SOUNDPROGRAMMINGPROJECT\SOUNDPROGRCLIENT\SOUNDPROGRCLIENT.CPP
C:\USERS\FAUST\SOURCE\REPOS\SOUNDPROGRAMMINGPROJECT\SOUNDPROGRCLIENT\X64\DEBUG\VC143.PDB
C:\USERS\FAUST\SOURCE\REPOS\SOUNDPROGRAMMINGPROJECT\SOUNDPROGRCLIENT\X64\DEBUG\VC143.IDB
C:\USERS\FAUST\SOURCE\REPOS\SOUNDPROGRAMMINGPROJECT\SOUNDPROGRCLIENT\X64\DEBUG\SOUNDPROGRCLIENT.OBJ
